{

    "pointerEvent": "pointer-events",
    "none": "none",
    "mainColor": "data-main-color",
    "secondaryColor": "data-secondary-color",
    "eraserPreview": "data-eraser-preview",
    "shouldSave": "data-should-save",
    "valueOne": "1",
    "valueFalse": "false",

    "fill": {
        "opacity": "fill-opacity",
        "color": "fill"
    },

    "border": {
        "opacity":"stroke-opacity",
        "color": "stroke",
        "width": "stroke-width",
        "position": "stroke-position",
        "inside": "inside"
    },

    "selectable": {
        "identifier": "data-is-selectable",
        "true": "true",
        "false": "false"
    },
    
    "element": {
        "type": "rect",
        "from": "svg"
    },

    "position": {
        "x": "x",
        "y": "y"
    },

    "dimension": {
        "height": "height",
        "width": "width"
    }

}