{
    "none": "none",
    "mainColor": "data-main-color",
    "secondaryColor": "data-secondary-color",
    "eraserPreview": "data-eraser-preview",

    "element": {
        "type": "ellipse",
        "from": "svg"
    },

    "fill": {
        "opacity": "fill-opacity",
        "color": "fill"
    },

    "border": {
        "opacity":"stroke-opacity",
        "color": "stroke",
        "width": "stroke-width",
        "position": "stroke-position",
        "inside": "inside"
    },

    "position": {
        "x": "cx",
        "y": "cy"
    },

    "dimension": {
        "height": "ry",
        "width": "rx"
    },

    "selectable": {
        "identifier": "data-is-selectable",
        "true": "true",
        "false": "false"
    }
}